k_azka_sur = {
	1001.3.13 = {
		holder = bulwari0007 #Zimud Semiz
	}
}

c_jikarzax = {
	1000.1.1 = { change_development_level = 4 }

	1000.1.2 = {
		holder = susi_0001
	}
}

c_zanagu = {
	1000.1.1 = { change_development_level = 4 }

	1000.1.2 = {
		holder = aruru_0001
	}
}