﻿# Anbennar: commented vanilla stuff

namespace = global_religion


#When a pagan (ai) domain is ready to feudalize, a reformed neighbor they're on good terms with should attempt to convert them, or they should have a chance to spontaneously convert


#########################################################################
# Pagan reformed by neighbor or spontaneously 							#
# by Linnéa Thimrén														#
# global_religion.0001-0009												#
#########################################################################


global_religion.0001 = {
	hidden = yes
	
	immediate = {
		random_list = {
			7 = {
				trigger = {
					any_neighboring_top_liege_realm_owner = {
						faith = { NOT = { has_doctrine_parameter = unreformed } }
					}
				}
				modifier = {
					add = 1
					any_neighboring_top_liege_realm_owner = {
						faith = { NOT = { has_doctrine_parameter = unreformed } }
						OR = {
							government_has_flag = government_is_clan
							government_has_flag = government_is_feudal
						}
					}
				}
				# modifier = { #Give Muslim faiths a boost in Africa
					# add = 4
					# capital_province = {
						# geographical_region = world_africa
					# }
					# any_neighboring_top_liege_realm_owner = {
						# faith.religion = religion:islam_religion
						# faith = { NOT = { has_doctrine_parameter = unreformed } }
					# }
				# }
				random_neighboring_top_liege_realm_owner = {
					limit = {
						faith = { NOT = { has_doctrine_parameter = unreformed } }
						OR = {
							government_has_flag = government_is_clan
							government_has_flag = government_is_feudal
						}
					}
					alternative_limit = {
						faith = { NOT = { has_doctrine_parameter = unreformed } }
					}
					save_scope_as = actor #for the effect to work properly
				}
			}
			5 = {
				trigger = {
					any_consort = {
						faith = { NOT = { has_doctrine_parameter = unreformed } }
						NOR = {
							has_relation_potential_rival = root
							has_relation_rival = root
						}
					}
				}
				random_consort = {
					limit = {
						faith = { NOT = { has_doctrine_parameter = unreformed } }
						NOR = {
							has_relation_potential_rival = root
							has_relation_rival = root
						}
					}
					save_scope_as = actor #for the effect to work properly
				}
			}
			5 = {
				trigger = {
					any_relation = {
						type = soulmate
						faith = { NOT = { has_doctrine_parameter = unreformed } }
					}
				}
				random_relation = {
					type = soulmate
					limit = {
						faith = { NOT = { has_doctrine_parameter = unreformed } }
					}
					save_scope_as = actor #for the effect to work properly
				}
			}
			2 = {
				trigger = {
					any_relation = {
						type = friend
						faith = { NOT = { has_doctrine_parameter = unreformed } }
					}
				}
				modifier = {
					add = 2
					any_relation = {
						type = friend
						faith = { NOT = { has_doctrine_parameter = unreformed } }
						has_relation_best_friend = root
					}
				}
				random_relation = {
					type = friend
					limit = {
						faith = { NOT = { has_doctrine_parameter = unreformed } }
						has_relation_best_friend = root
					}
					alternative_limit = {
						faith = { NOT = { has_doctrine_parameter = unreformed } }
					}
					save_scope_as = actor #for the effect to work properly
				}
			}
			2 = {
				trigger = {
					any_relation = {
						type = lover
						faith = { NOT = { has_doctrine_parameter = unreformed } }
					}
				}
				modifier = {
					add = 2
					any_relation = {
						type = lover
						faith = { NOT = { has_doctrine_parameter = unreformed } }
						has_relation_best_friend = root
					}
				}
				random_relation = {
					type = lover
					limit = {
						faith = { NOT = { has_doctrine_parameter = unreformed } }
						has_relation_best_friend = root
					}
					alternative_limit = {
						faith = { NOT = { has_doctrine_parameter = unreformed } }
					}
					save_scope_as = actor #for the effect to work properly
				}
			}
			2 = {
				trigger = {
					any_councillor = {
						faith = { NOT = { has_doctrine_parameter = unreformed } }
					}
				}
				modifier = {
					add = 2
					any_councillor = {
						faith = { NOT = { has_doctrine_parameter = unreformed } }
						has_relation_best_friend = root
					}
				}
				random_councillor = {
					limit = {
						faith = { NOT = { has_doctrine_parameter = unreformed } }
						has_relation_best_friend = root
					}
					alternative_limit = {
						faith = { NOT = { has_doctrine_parameter = unreformed } }
					}
					save_scope_as = actor #for the effect to work properly
				}
			}
			#Geographical regions to also push extra for
			# 2 = {
				# trigger = { #Russia - orthodox
					# capital_province = {
						# geographical_region = ghw_region_russia
					# }
					# exists = faith:orthodox
					# faith:orthodox = {
						# exists = religious_head
					# }
				# }
				# faith:orthodox = {
					# religious_head = {
						# save_scope_as = actor #for the effect to work properly
					# }
				# }
			# }
			# 2 = {
				# trigger = { #Scandinavia - catholic
					# capital_province = {
						# geographical_region = ghw_region_scandinavia
					# }
					# exists = faith:catholic
					# faith:catholic = {
						# exists = religious_head
					# }
				# }
				# faith:catholic = {
					# religious_head = {
						# save_scope_as = actor #for the effect to work properly
					# }
				# }
			# }
			100 = {
				# modifier = { # A parallel system for africans lowers the need for this # Anbennar
					# add = 50
					# faith = {
						# has_doctrine = west_african_unreformed_faith_doctrine
					# }
				# }
				# modifier = { # Historically held out for a long time # Anbennar
					# add = 150
					# faith.religion = religion:baltic_religion
				# }
				# modifier = { # Less susceptible # Anbennar
					# add = 50
					# faith.religion = faith:finnish_pagan.religion
				# }
				# modifier = { # The mongols are (mostly) busy # Anbennar
					# add = 150
					# has_title = title:e_mongol_empire
				# }
				modifier = {
					add = -40
					current_date >= 868.1.1
				}
				modifier = {
					add = -15
					current_date >= 900.1.1
				}
				modifier = {
					add = -25
					current_date >= 950.1.1
				}
				modifier = {
					add = -10
					current_date >= 1000.1.1
				}
				modifier = { #100 % that something happens if it can
					add = -10
					current_date >= 1100.1.1
				}
			}
		}

		if = {
			limit = {
				exists = scope:actor
			}
			save_scope_as = recipient #for the effect to work properly
			
			every_vassal = {
				limit = {
					faith = root.faith
				}

				demand_conversion_interaction_effect = yes

				if = { #If you converted to a neighboring faith your government and capital county also converts
					limit = {
						root = {
							any_neighboring_top_liege_realm_owner = {
								this = scope:recipient
							}
						}
						# NAND = { # The Steppes convert, but stay tribal # Anbennar
							# exists = capital_province
							# capital_province = { geographical_region = world_steppe }
						# }
					}
					# if = { # Anbennar
					# limit = {
						# faith = { religion_tag = islam_religion }
					# }
					# change_government = clan_government
				# }
				# else = {
					change_government = feudal_government
				# }
					capital_county = {
						set_county_faith = prev.faith
					}
				}
			}

			demand_conversion_interaction_effect = yes

			if = { #If you converted to a neighboring faith your government and capital county also converts
				limit = {
					any_neighboring_top_liege_realm_owner = {
						this = scope:recipient
					}
					# NAND = { # The Steppes convert, but stay tribal # Anbennar
						# exists = capital_province
						# capital_province = { geographical_region = world_steppe }
					# }
				}
				# if = { # Anbennar
					# limit = {
						# faith = { religion_tag = islam_religion }
					# }
					# change_government = clan_government
				# }
				# else = {
					change_government = feudal_government
				# }
				capital_county = {
					set_county_faith = root.faith
				}
			}
		}
	}
}
